Accuracy: 0.638879269345671
Macro F-measure: 0.09037130634023369
Macro G-mean: 0.08183619507888674
              precision    recall  f1-score   support

           0       0.36      0.16      0.22     19174
           1       0.00      0.00      0.00      5498
           2       0.00      0.00      0.00        13
           3       0.00      0.00      0.00      8418
           4       0.00      0.00      0.00       209
           5       0.00      0.00      0.00         3
           6       0.00      0.00      0.00         7
           7       0.00      0.00      0.00      9974
           8       0.00      0.00      0.00         4
           9       0.83      0.10      0.17     38119
          10       0.65      0.99      0.78    133596
          11       0.00      0.00      0.00       222
          12       0.00      0.00      0.00      1336

    accuracy                           0.64    216573
   macro avg       0.14      0.10      0.09    216573
weighted avg       0.58      0.64      0.53    216573
